<svg version="1.1"
	 id="Layer_1" xmlns:v="http://schemas.microsoft.com/visio/2003/SVGExtensions/" xmlns:ev="http://www.w3.org/2001/xml-events"
	 xmlns="http://www.w3.org/2000/svg" xmlns:xlink="http://www.w3.org/1999/xlink" x="0px" y="0px" width="31.18px"
	 height="59.527px" viewBox="0.24 0.24 31.18 59.527" enable-background="new 0.24 0.24 31.18 59.527" xml:space="preserve">
		<linearGradient id="anim"  x1="0%" y1="100%">
      <stop offset="0%" stop-color="#148F01" stop-opacity="1">
      		<animate attributeName="stop-color" 
      			values="red;rgba(255,0,0,0.3);red" dur="50ms" repeatCount="indefinite"/>
		</stop>
    </linearGradient>
    
        
        <g transform="translate(0.24,-0.24)">
			<g>
				<path fill="#D7D7D7"  d="M0,1.48c0-0.55,0.45-1,1-1h29.18c0.55,0,1,0.45,1,1v57.527c0,0.55-0.45,1-1,1H1c-0.55,0-1-0.45-1-1V1.48
					z">
        </path>
			</g>
		</g>
</svg>
